module gitlab.com/abitrolly/dnf-go-gui

go 1.21

require (
	github.com/gdamore/tcell/v2 v2.7.4
	github.com/rivo/tview v0.0.0-20240524063012-037df494fb76
)

require (
	github.com/gdamore/encoding v1.0.1 // indirect
	github.com/lucasb-eyer/go-colorful v1.2.0 // indirect
	github.com/mattn/go-runewidth v0.0.15 // indirect
	github.com/rivo/uniseg v0.4.7 // indirect
	golang.org/x/sys v0.20.0 // indirect
	golang.org/x/term v0.20.0 // indirect
	golang.org/x/text v0.15.0 // indirect
)
